<?xml version="1.0" encoding="UTF-8" standalone="no"?>
<svg width="52px" height="44px" viewBox="0 0 52 44" version="1.1" xmlns="http://www.w3.org/2000/svg" xmlns:xlink="http://www.w3.org/1999/xlink" xmlns:sketch="http://www.bohemiancoding.com/sketch/ns">
    <!-- Generator: Sketch 3.0.3 (7891) - http://www.bohemiancoding.com/sketch -->
    <title>check</title>
    <desc>Created with Sketch.</desc>
    <defs></defs>
    <g id="Page-1" stroke="none" stroke-width="1" fill="none" fill-rule="evenodd" sketch:type="MSPage">
        <g id="Icons" sketch:type="MSArtboardGroup" transform="translate(-295.000000, -26.000000)" fill="#EC89A3">
            <path d="M344.638197,26 C329.428067,35.5100642 318.391515,47.5089795 313.43266,53.5304877 L301.288277,43.8270568 L295.925657,48.2361227 L316.910087,70 C320.521605,60.5660893 331.959284,42.1280498 345.925657,29.0277746 L344.638197,26 L344.638197,26 Z" id="check" sketch:type="MSShapeGroup"></path>
        </g>
    </g>
</svg>